<?xml version="1.0" encoding="UTF-8"?>
<CustomTab xmlns="http://soap.sforce.com/2006/04/metadata">
    <customObject>true</customObject>
    <icon>ButtonsLogosImages/Headset_Icon.jpg</icon>
    <mobileReady>false</mobileReady>
    <motif>Custom199: TV Widescreen</motif>
</CustomTab>
