<?xml version="1.0" encoding="UTF-8"?>
<CustomTab xmlns="http://soap.sforce.com/2006/04/metadata">
    <label>Auto Domain Config</label>
    <mobileReady>false</mobileReady>
    <motif>Custom11: Star</motif>
    <page>SCDomainAutoPage</page>
</CustomTab>
