<?xml version="1.0" encoding="UTF-8"?>
<CustomTab xmlns="http://soap.sforce.com/2006/04/metadata">
    <icon>ButtonsLogosImages/GMSLogo.png</icon>
    <label>Capacity planning</label>
    <mobileReady>false</mobileReady>
    <motif>Custom338: TV Widescreen</motif>
    <page>SCCapacityPlanning</page>
</CustomTab>
