<?xml version="1.0" encoding="UTF-8"?>
<CustomTab xmlns="http://soap.sforce.com/2006/04/metadata">
    <customObject>true</customObject>
    <description>nur für die Related List - nicht anzeigen</description>
    <icon>ButtonsLogosImages/GMSLogo.png</icon>
    <mobileReady>false</mobileReady>
    <motif>Custom338: TV Widescreen</motif>
</CustomTab>
