<?xml version="1.0" encoding="UTF-8"?>
<CustomTab xmlns="http://soap.sforce.com/2006/04/metadata">
    <description>Ermöglicht bestimmte Funktionen direkt anzusprechen.</description>
    <icon>ButtonsLogosImages/GMSLogo.png</icon>
    <label>Tools</label>
    <mobileReady>false</mobileReady>
    <motif>Custom338: TV Widescreen</motif>
    <page>SCOrderUtils</page>
</CustomTab>
